<?xml version="1.0" encoding="UTF-8" standalone="no"?>
<svg
   xmlns:dc="http://purl.org/dc/elements/1.1/"
   xmlns:cc="http://creativecommons.org/ns#"
   xmlns:rdf="http://www.w3.org/1999/02/22-rdf-syntax-ns#"
   xmlns:svg="http://www.w3.org/2000/svg"
   xmlns="http://www.w3.org/2000/svg"
   xmlns:sodipodi="http://sodipodi.sourceforge.net/DTD/sodipodi-0.dtd"
   xmlns:inkscape="http://www.inkscape.org/namespaces/inkscape"
   version="1.1"
   id="svg4197"
   viewBox="0 0 64 64"
   height="64"
   width="64"
   sodipodi:docname="icon.svg"
   inkscape:version="1.0alpha (2b290efb96, 2019-03-26, custom)"
   inkscape:export-filename="/home/doctormo/Projects/inkscape/extension-manager-icon.png"
   inkscape:export-xdpi="450"
   inkscape:export-ydpi="450">
  <sodipodi:namedview
     pagecolor="#ffffff"
     bordercolor="#666666"
     inkscape:document-rotation="0"
     borderopacity="1"
     objecttolerance="10"
     gridtolerance="10"
     guidetolerance="10"
     inkscape:pageopacity="0"
     inkscape:pageshadow="2"
     inkscape:window-width="640"
     inkscape:window-height="480"
     id="namedview11"
     showgrid="false"
     inkscape:zoom="3.3108395"
     inkscape:cx="113.73517"
     inkscape:cy="52.040953"
     inkscape:current-layer="svg4197" />
  <style
     id="style4677"></style>
  <defs
     id="defs4199">
    <linearGradient
       id="linearGradient5172-4">
      <stop
         id="stop5174-9"
         offset="0"
         style="stop-color:#fcdd2b;stop-opacity:1;" />
      <stop
         id="stop5176-4"
         offset="1"
         style="stop-color:#fc0006;stop-opacity:1;" />
    </linearGradient>
    <clipPath
       id="clipPath1439"
       clipPathUnits="userSpaceOnUse">
      <path
         inkscape:connector-curvature="0"
         id="path1441"
         d="m 262.56028,561.9219 93.96894,0.69095 -18.6556,-24.18318 102.26032,-13.12802 57.34869,33.85646 -68.40386,4.83664 92.58705,17.96465 -1.3819,47.67542 63.56723,50.43921 -98.80558,53.89395 38.00214,24.18318 -189.31978,8.29138 17.96465,-15.8918 -87.7504,-27.63793 33.1655,-26.94698 -69.78575,-47.67541 24.18318,-36.62025 z"
         style="fill:#ffffff;stroke:#000000;stroke-width:1px;stroke-linecap:butt;stroke-linejoin:miter;stroke-opacity:1" />
    </clipPath>
  </defs>
  <metadata
     id="metadata4202">
    <rdf:RDF>
      <cc:Work
         rdf:about="">
        <dc:format>image/svg+xml</dc:format>
        <dc:type
           rdf:resource="http://purl.org/dc/dcmitype/StillImage" />
        <dc:title />
      </cc:Work>
    </rdf:RDF>
  </metadata>
  <circle
     r="30.819904"
     cy="32"
     cx="32"
     id="path834"
     style="vector-effect:none;fill:none;stroke-width:1;paint-order:stroke fill markers;stop-color:#000000;font-variation-settings:normal;opacity:1;fill-opacity:0.5;stroke:#888a85;stroke-linecap:butt;stroke-linejoin:miter;stroke-miterlimit:4;stroke-dasharray:2, 2;stroke-dashoffset:0;stroke-opacity:1;stop-opacity:1" />
  <path
     d="M 49.586116,49.641597 C 49.254881,49.972831 34.174956,42.610521 33.712287,42.683801 33.249618,42.757081 21.182836,54.419007 20.765456,54.206341 20.348076,53.993675 22.690096,37.376735 22.47743,36.959356 22.264765,36.541976 7.4447732,28.669517 7.5180528,28.206848 7.5913324,27.744179 24.118705,24.836655 24.44994,24.505421 24.781174,24.174186 27.688698,7.6468134 28.151367,7.5735338 28.614036,7.5002542 36.486495,22.320246 36.903875,22.532911 37.321254,22.745577 53.938194,20.403557 54.15086,20.820937 54.363526,21.238317 42.7016,33.305099 42.62832,33.767768 42.555041,34.230437 49.917351,49.310362 49.586116,49.641597 Z"
     inkscape:randomized="0"
     inkscape:rounded="0.027027654"
     inkscape:flatsided="false"
     sodipodi:arg2="1.4137167"
     sodipodi:arg1="0.78539816"
     sodipodi:r2="10.726005"
     sodipodi:r1="24.821917"
     sodipodi:cy="32.089852"
     sodipodi:cx="32.034372"
     sodipodi:sides="5"
     id="path17"
     style="vector-effect:none;fill:none;fill-opacity:0.5;stroke:#888a85;stroke-width:1;stroke-miterlimit:4;stroke-dasharray:2, 2;stroke-dashoffset:0;stroke-opacity:1;paint-order:stroke fill markers;stop-color:#000000"
     sodipodi:type="star" />
  <text
     id="text59"
     y="-2.2246571"
     x="75.024651"
     style="font-size:8px;line-height:1.25;font-family:sans-serif;text-align:start;letter-spacing:0px;word-spacing:0px;text-anchor:start;fill:#a40000"
     xml:space="preserve"><tspan
       y="-2.2246571"
       x="75.024651"
       id="tspan57"
       sodipodi:role="line">Delete these notes:</tspan><tspan
       id="tspan61"
       y="7.7753429"
       x="75.024651"
       sodipodi:role="line" /><tspan
       id="tspan63"
       y="17.775343"
       x="75.024651"
       sodipodi:role="line">- Keep inside the lines</tspan><tspan
       id="tspan65"
       y="27.775343"
       x="75.024651"
       sodipodi:role="line">- Delete any un-needed objects</tspan><tspan
       id="tspan67"
       y="37.775345"
       x="75.024651"
       sodipodi:role="line">- Keep things simple as possible</tspan><tspan
       id="tspan950"
       y="47.775345"
       x="75.024651"
       sodipodi:role="line">- Convert text to paths (or don't have text)</tspan><tspan
       id="tspan954"
       y="57.775345"
       x="75.024651"
       sodipodi:role="line">- Use &quot;File &gt; Clean Up Document&quot; before saving</tspan><tspan
       id="tspan956"
       y="67.775345"
       x="75.024651"
       sodipodi:role="line">- Save as Plain SVG (optional)</tspan></text>
</svg>
